{
  "left": [
    {
      "title": "Состав группы",
      "icon": "people",
      "groupCount": "15",
      "text": ["максимальный размер группы"]
    },
    {
      "title": "сложность",
      "icon": "location",
      "grade":"2 из 5",
      "text": [
        "Средний уровень физической нагрузки",
        "Прогулки по городу",
        "Перелет между локациями"
      ]
    },
    {
      "title": "Комфорт",
      "icon": "star",
      "grade":"5 из 5",
      "text": [
        "Проживание в отелях 4*",
        "Трансферы на микроавтобусе",
        "Высокорейтинговые рестораны"
      ]
    }
  ],
  "right": {
    "title": "Важно знать!",
    "text": [
      "Срок действия паспорта должен составлять не менее 6 месяцев со дня окончания поездки",
      "Для прилёта в Турцию необходимо иметь при себе отрицательный результат ПЦР-теста, сделанного не раньше чем за 72 часа ⁣",
      "При наличии сертификата о вакцинации пцр-тест не нужен",
      "При заселении в отель на стойке регистрации необходимо предоставить паспорт и действующую кредитную/дебетовую карту - это требование отеля"
    ]
  }
}